{
  "version": "14.0.0",
  "vulnerabilities": [
    {
      "id": "06714708448416e06f073702cf723c7296183f1ecf6eddecf63e2cc97e818cec",
      "category": "sast",
      "name": "Weak random number generator.",
      "message": "Weak random number generator.",
      "cve": "Controllers/WeatherForecastController.cs:33:SCS0005",
      "severity": "High",
      "scanner": {
        "id": "security_code_scan",
        "name": "Security Code Scan"
      },
      "location": {
        "file": "Controllers/WeatherForecastController.cs",
        "start_line": 33
      },
      "identifiers": [
        {
          "type": "security_code_scan_rule_id",
          "name": "SCS0005",
          "value": "SCS0005",
          "url": "https://security-code-scan.github.io/#SCS0005"
        }
      ]
    },
    {
      "id": "01a56bf3ede91981d3fbbd41a561f2159c8388547395d820bd53ebe4b63468ca",
      "category": "sast",
      "name": "Weak random number generator.",
      "message": "Weak random number generator.",
      "cve": "Controllers/WeatherForecastController.cs:34:SCS0005",
      "severity": "High",
      "scanner": {
        "id": "security_code_scan",
        "name": "Security Code Scan"
      },
      "location": {
        "file": "Controllers/WeatherForecastController.cs",
        "start_line": 34
      },
      "identifiers": [
        {
          "type": "security_code_scan_rule_id",
          "name": "SCS0005",
          "value": "SCS0005",
          "url": "https://security-code-scan.github.io/#SCS0005"
        }
      ]
    }
  ],
  "scan": {
    "analyzer" : {
      "id" : "security_code_scan",
      "name" : "Security Code Scan",
      "url" : "https://gitlab.com/gitlab-org/security-products/analyzers/security-code-scan",
      "vendor" : {
        "name" : "GitLab"
      }
    },
    "scanner": {
      "id": "security_code_scan",
      "name": "Security Code Scan",
      "url": "https://security-code-scan.github.io",
      "vendor": {
        "name": "GitLab"
      },
      "version": "5.2.1"
    },
    "type": "sast",
    "start_time": "2021-12-16T19:29:34",
    "end_time": "2021-12-16T19:29:46",
    "status": "success"
  }
}
